…
> de <- data.frame("1","OLD_WORDS")
> names(de) <- c("word","lexicon")
> de <- data.frame("hath","OLD_WORDS")
> names(de) <- c("word","lexicon")
> de <- data.frame("mar’d","OLD_WORDS")
> names(de) <- c("word","lexicon")
> stop_words <- rbind(stop_words,de)
> 
> tidy_text <- tidy_text %>%
+   anti_join(stop_words)
Joining with `by = join_by(word)`
> 
> tidy_text %>%
+   count(word, sort = TRUE)
# A tibble: 2,115 × 2
   word        n
   <chr>   <int>
 1 poetry    180
 2 form       49
 3 lines      49
 4 poetic     48
 5 verse      47
 6 rhyme      42
 7 poem       39
 8 forms      38
 9 main       33
10 century    31
# ℹ 2,105 more rows
# ℹ Use `print(n = ...)` to see more rows
> text_bigrams <- text_df %>%
+   unnest_tokens(bigram, text, token = "ngrams", n = 2)
> text_bigrams
# A tibble: 9,148 × 2
    line bigram      
   <dbl> <chr>       
 1     1 this article
 2     1 article is  
 3     1 is about    
 4     1 about the   
 5     1 the art     
 6     1 art form    
 7     1 form for    
 8     1 for other   
 9     1 other uses  
10     1 uses see    
# ℹ 9,138 more rows
# ℹ Use `print(n = ...)` to see more rows
> text_bigrams %>%
+   count(bigram, sort = TRUE)
# A tibble: 6,926 × 2
   bigram           n
   <chr>        <int>
 1 of the          62
 2 in the          50
 3 such as         33
 4 of poetry       29
 5 and the         27
 6 main article    26
 7 to the          26
 8 on the          23
 9 is a            21
10 of a            21
# ℹ 6,916 more rows
# ℹ Use `print(n = ...)` to see more rows
…
Dołączanie pakietu: ‘tidyr’

Następujący obiekt został zakryty z ‘package:igraph’:

    crossing

> bigrams_separated <- text_bigrams %>%
+   separate(bigram, c("word1", "word2"), sep = " ")
> bigrams_filtered <- bigrams_separated %>%
+   filter(!word1 %in% stop_words$word) %>%
+   filter(!word2 %in% stop_words$word)
> bigram_counts <- bigrams_filtered %>%
+   count(word1, word2, sort = TRUE)
> bigram_counts
# A tibble: 2,161 × 3
   word1     word2          n
   <chr>     <chr>      <int>
 1 main      article       26
 2 poetic    diction       12
 3 epic      poetry        11
 4 poetic    forms          9
 5 20th      century        8
 6 dactylic  hexameter      7
 7 dramatic  poetry         7
 8 iambic    pentameter     7
 9 love      poem           6
10 narrative poetry         6
# ℹ 2,151 more rows
# ℹ Use `print(n = ...)` to see more rows
> bigrams_united <- bigrams_filtered %>%
+   unite(bigram, word1, word2, sep = " ")
> bigrams_united
# A tibble: 2,571 × 2
    line bigram               
   <dbl> <chr>                
 1     1 art form             
 2     1 poetry disambiguation
 3     1 disambiguation love  
 4     1 love poem            
 5     1 poem redirects       
 6     1 love poem            
 7     1 poem ep              
 8     1 iu song              
 9     1 love poem            
10     1 poem song            
# ℹ 2,561 more rows
# ℹ Use `print(n = ...)` to see more rows
…
